…
``` r
## Check how many rows are affected by this
bad_lineups <- pbp_2018 %>%
  select(matches("_player[1-5]")) %>%
  apply(1, function(x) max(table(x)) > 1)

pbp_bad <- pbp_2018 %>%
  filter(bad_lineups)

pbp_bad %>%
  select(season, game_code, play_number, play_type, away_player4, away_player5)
```

    ## # A tibble: 10,260 × 6
    ##    season game_code play_number play_type away_player4 away_player5
    ##     <dbl>     <dbl>       <dbl> <chr>     <chr>        <chr>       
    ##  1   2018         2          93 IN        TOMIC, ANTE  TOMIC, ANTE 
    ##  2   2018         2          94 OUT       TOMIC, ANTE  TOMIC, ANTE 
    ##  3   2018         2          95 OUT       TOMIC, ANTE  TOMIC, ANTE 
    ##  4   2018         2          96 IN        TOMIC, ANTE  TOMIC, ANTE 
    ##  5   2018         2          97 OUT       TOMIC, ANTE  TOMIC, ANTE 
    ##  6   2018         2          98 IN        TOMIC, ANTE  TOMIC, ANTE 
    ##  7   2018         2          99 OUT       TOMIC, ANTE  TOMIC, ANTE 
    ##  8   2018         2         100 FTM       TOMIC, ANTE  TOMIC, ANTE 
    ##  9   2018         2         101 FTM       TOMIC, ANTE  TOMIC, ANTE 
    ## 10   2018         2         116 AST       KURIC, KYLE  KURIC, KYLE 
    ## # … with 10,250 more rows
…
